Place,Name,Sex,Event,Division,WeightClassKg,Equipment,BirthYear,Team,State,BodyweightKg,Squat1Kg,Squat2Kg,Squat3Kg,Best3SquatKg,Bench1Kg,Bench2Kg,Bench3Kg,Best3BenchKg,Deadlift1Kg,Deadlift2Kg,Deadlift3Kg,Best3DeadliftKg,TotalKg,Age,BirthDate
1,Nico Watkins,M,B,MR-O,82.5,Raw,1997,,ID,78.3,,,,,125,-135,-135,125,,,,,125,,
1,Adilene Chávez,F,SBD,FR-Jr,82.5,Raw,2002,,ID,80.9,162.5,165,170,170,92.5,-97.5,97.5,97.5,160,162.5,170,170,437.5,,
1,Robin Ray,F,SBD,FR-M1a,60,Raw,1979,,ID,58.3,120,127.5,130,130,80,85,87.5,87.5,140,142.5,150,150,367.5,,
1,Rachel Davis,F,SBD,FR-M1b,56,Raw,1978,,WA,54.1,52.5,-60,60,60,30,-35,35,35,65,70,-85,70,165,,
1,Roberta Garvin,F,SBD,FR-M1b,67.5,Raw,1975,,ID,65.5,85,87.5,95,95,-62.5,62.5,67.5,67.5,80,87.5,95,95,257.5,,
1,Chandra Schreck,F,SBD,FR-M2a,75,Raw,1972,,ID,73.6,75,82.5,-92.5,82.5,55,60,62.5,62.5,102.5,115,127.5,127.5,272.5,,
1,Jill Singer,F,SBD,FR-M2b,75,Raw,1967,,ID,74.4,65,75,80,80,50,55,57.5,57.5,90,105,117.5,117.5,255,,
1,Julie Machakos,F,SBD,FR-M2b,67.5,Raw,1965,,ID,63.6,77.5,80,87.5,87.5,50,55,-57.5,55,97.5,105,-110,105,247.5,,
1,Heidi Barker,F,SBD,FR-M3a,75,Raw,1960,,ID,72.9,115,122.5,-127.5,122.5,67.5,70,-72.5,70,147.5,152.5,157.5,157.5,350,,
2,Denise Mills,F,SBD,FR-M3a,75,Raw,1962,,ID,73.1,-87.5,87.5,90,90,55,57.5,62.5,62.5,125,130,-137.5,130,282.5,,
1,Brenda Davila,F,SBD,FR-M3b,82.5,Raw,1958,,WA,77.3,-100,100,-110,100,50,52.5,57.5,57.5,115,117.5,125,125,282.5,,
1,Heather Martorelli,F,SBD,FR-O,56,Raw,1997,,ID,54.8,100,107.5,-115,107.5,47.5,52.5,55,55,140,147.5,-155,147.5,310,,
1,Robin Ray,F,SBD,FR-O,60,Raw,1979,,ID,58.3,120,127.5,130,130,80,85,87.5,87.5,140,142.5,150,150,367.5,,
2,Emma Adkins,F,SBD,FR-O,60,Raw,1998,More on the Bar,ID,57.7,90,97.5,105,105,55,60,67.5,67.5,100,107.5,115,115,287.5,,
1,Terasa Tampoya,F,SBD,FR-O,75,Raw,1996,,ID,73.8,132.5,142.5,-145,142.5,75,-80,-80,75,145,150,-155,150,367.5,,
2,Nikki Lowery,F,SBD,FR-O,75,Raw,1995,,ID,72.5,-82.5,85,90,90,42.5,45,-50,45,95,102.5,107.5,107.5,242.5,,
1,Heidi Juarez,F,SBD,FR-O,100,Raw,1990,,ID,91,-140,140,145,145,-72.5,72.5,75,75,150,155,-165,155,375,,
1,Lindsey Wagstaff,F,SBD,FR-O,67.5,Raw,1990,,ID,65.1,92.5,-97.5,97.5,97.5,50,-52.5,-55,50,130,137.5,-145,137.5,285,,
1,Adilene Chávez,F,SBD,FR-O,82.5,Raw,2002,,ID,80.9,162.5,165,170,170,92.5,-97.5,97.5,97.5,160,162.5,170,170,437.5,,
DQ,Natalie Nunez,F,SBD,FR-O,82.5,Raw,1995,,WA,79.7,102.5,110,-115,110,-50,-50,-50,,110,-115,120,120,,,
1,Laynee Ray,F,SBD,FR-T1,52,Raw,2008,,ID,50,-70,70,75,75,32.5,37.5,-40,37.5,92.5,100,105,105,217.5,,
DQ,Alyssa Gonzalez,F,SBD,FR-T2,56,Raw,2006,,ID,56,62.5,65,70,70,-35,-37.5,-37.5,,87.5,90,95,95,,,
1,Alexandra Garvin,F,SBD,FR-T3,75,Raw,2005,,ID,69.1,90,-95,-100,90,57.5,62.5,67.5,67.5,100,105,-110,105,262.5,,
1,Sydney Martin,F,SBD,FR-T3,90,Raw,2004,,ID,89.4,125,-135,135,135,47.5,50,-52.5,50,130,137.5,-142.5,137.5,322.5,,
1,Trista Smith,F,SBD,FR-T3,67.5,Raw,2005,,WA,63.2,112.5,117.5,122.5,122.5,80,-85,-85,80,135,142.5,150,150,352.5,,
1,Israel Lopez Nava,M,SBD,MR-Jr,75,Raw,2001,,ID,73.7,147.5,165,170,170,90,102.5,-110,102.5,155,-172.5,172.5,172.5,445,,
1,Kade Ashby,M,SBD,MR-Jr,90,Raw,2003,,UT,87.1,200,212.5,220,220,140,150,-160,150,240,250,257.5,257.5,627.5,,
2,Justin Arriola,M,SBD,MR-Jr,90,Raw,2000,,WA,88.2,150,175,180,180,92.5,97.5,-102.5,97.5,-222.5,235,-242.5,235,512.5,,
1,Roman Reyes Jr,M,SBD,MR-Jr,100,Raw,2000,,ID,97.4,245,260,272.5,272.5,-145,150,-160,150,255,275,-290,275,697.5,,
2,Isaiah Estrada,M,SBD,MR-Jr,100,Raw,2003,More on the Bar,ID,98.9,200,210,220,220,135,142.5,-150,142.5,225,240,-262.5,240,602.5,,
1,Connor Barley,M,SBD,MR-Jr,125,Raw,2001,,ID,122.1,-120,130,-140,130,80,87.5,92.5,92.5,135,142.5,170,170,392.5,,
1,Jared Shelton,M,SBD,MR-M1a,82.5,Raw,1979,,ID,80.6,175,185,-190,185,125,-132.5,-132.5,125,225,235,240,240,550,,
1,Joseph Martin,M,SBD,MR-M2a,140,Raw,1971,,ID,135.1,152.5,160,175,175,142.5,-147.5,150,150,190,197.5,205,205,530,,
1,Joey August,M,SBD,MR-M2b,100,Raw,1964,,WA,98.4,182.5,187.5,-192.5,187.5,147.5,152.5,-157.5,152.5,202.5,210,-217.5,210,550,,
DQ,Crosby Hill,M,SBD,MR-M2b,100,Raw,1967,,ID,99.4,127.5,-150,-150,127.5,-120,-120,-120,,,,,,,,
1,Thomas Ives,M,SBD,MR-M3a,110,Raw,1961,,ID,106.5,-130,135,140,140,115,120,125,125,170,180,-190,180,445,,
1,Tim Clare,M,SBD,MR-M3a,140,Raw,1961,,ID,129.5,115,127.5,-132.5,127.5,70,-77.5,-82.5,70,115,130,137.5,137.5,335,,
DQ,Paul Zambon,M,SBD,MR-M4a,100,Raw,1953,,WA,94,55,92.5,100,100,-125,-125,-125,,142.5,147.5,152.5,152.5,,,
1,Michael Saveliev,M,SBD,MR-O,75,Raw,2006,,UT,74.2,155,-160,162.5,162.5,95,100,-105,100,175,182.5,190,190,452.5,,
2,Ashton Smith,M,SBD,MR-O,75,Raw,1993,,ID,71.6,87.5,92.5,95,95,-72.5,75,-77.5,75,-117.5,117.5,-125,117.5,287.5,,
1,Collin Gole,M,SBD,MR-O,90,Raw,1993,,ID,88.6,205,220,230,230,125,137.5,147.5,147.5,247.5,270,285,285,662.5,,
2,Justin Medeiros,M,SBD,MR-O,90,Raw,1999,,ID,89.5,212.5,222.5,232.5,232.5,127.5,132.5,137.5,137.5,257.5,-272.5,272.5,272.5,642.5,,
3,Kade Ashby,M,SBD,MR-O,90,Raw,2003,,UT,87.1,200,212.5,220,220,140,150,-160,150,240,250,257.5,257.5,627.5,,
4,Kolby Ashby,M,SBD,MR-O,90,Raw,2006,,UT,87,167.5,172.5,-182.5,172.5,105,110,-112.5,110,172.5,182.5,190,190,472.5,,
5,Bradley Colvin,M,SBD,MR-O,90,Raw,1994,,WA,87.7,115,-130,132.5,132.5,-65,67.5,72.5,72.5,160,175,-185,175,380,,
1,Jaime Campos,M,SBD,MR-O,100,Raw,1999,,ID,99.5,250,260,275,275,175,187.5,192.5,192.5,250,275,282.5,282.5,750,,
2,Joey August,M,SBD,MR-O,100,Raw,1964,,WA,98.4,182.5,187.5,-192.5,187.5,147.5,152.5,-157.5,152.5,202.5,210,-217.5,210,550,,
3,Cameron White,M,SBD,MR-O,100,Raw,1993,,ID,96.5,170,182.5,185,185,125,-137.5,-140,125,207.5,222.5,232.5,232.5,542.5,,
4,Ryan Goldsmith,M,SBD,MR-O,100,Raw,1984,,ID,94.9,-135,147.5,155,155,125,137.5,-145,137.5,175,197.5,207.5,207.5,500,,
1,Alex Mostacero,M,SBD,MR-O,110,Raw,1995,More on the Bar,ID,107.6,270,285,-297.5,285,185,192.5,-197.5,192.5,285,300,320,320,797.5,,
1,Austin Heathman,M,SBD,MR-O,125,Raw,1996,,ID,120.7,215,225,232.5,232.5,180,187.5,-192.5,187.5,255,262.5,272.5,272.5,692.5,,
2,Deontae Hardin,M,SBD,MR-O,125,Raw,1995,More on the Bar,ID,124.7,182.5,190,197.5,197.5,140,147.5,157.5,157.5,200,-210,-212.5,200,555,,
3,Alexander Don Cook,M,SBD,MR-O,125,Raw,1995,,ID,118.5,185,190,197.5,197.5,-135,135,-137.5,135,185,190,200,200,532.5,,
4,Connor Barley,M,SBD,MR-O,125,Raw,2001,,ID,122.1,-120,130,-140,130,80,87.5,92.5,92.5,135,142.5,170,170,392.5,,
DQ,Gaton Gilham,M,SBD,MR-O,140+,Raw,1992,,ID,163,275,295,-317.5,295,162.5,172.5,-182.5,172.5,-250,-250,-250,,,,
1,Makay Ashby,M,SBD,MR-O,82.5,Raw,1996,,UT,81.5,215,-217.5,-217.5,215,165,170,172.5,172.5,272.5,-277.5,-277.5,272.5,660,,
2,Dallas Hamm,M,SBD,MR-O,82.5,Raw,1986,,ID,81.3,242.5,-257.5,-257.5,242.5,132.5,140,-142.5,140,262.5,-277.5,-277.5,262.5,645,,
3,Kalin Ashby,M,SBD,MR-O,82.5,Raw,1993,More on the Bar,ID,78.4,200,210,222.5,222.5,132.5,140,145,145,220,230,240,240,607.5,,
4,Garrick Slack,M,SBD,MR-O,82.5,Raw,1993,,WA,82.1,192.5,200,215,215,145,152.5,-160,152.5,197.5,215,-227.5,215,582.5,,
5,Jared Shelton,M,SBD,MR-O,82.5,Raw,1979,,ID,80.6,175,185,-190,185,125,-132.5,-132.5,125,225,235,240,240,550,,
1,Chase Ambrosek,M,SBD,MR-T1,110,Raw,2008,,ID,103.7,127.5,130,142.5,142.5,90,95,102.5,102.5,-167.5,185,200,200,445,,
1,Trevin Bentley,M,SBD,MR-T1,67.5,Raw,2008,More on the Bar,ID,67.3,130,137.5,-145,137.5,85,90,95,95,140,152.5,170,170,402.5,,
2,Cash Sullivan,M,SBD,MR-T1,67.5,Raw,2008,,ID,65.8,125,132.5,140,140,90,95,100,100,127.5,140,145,145,385,,
1,Adam Curtis,M,SBD,MR-T1,82.5,Raw,2008,,ID,82.4,-120,120,122.5,122.5,82.5,87.5,-92.5,87.5,-132.5,132.5,147.5,147.5,357.5,,
1,Michael Saveliev,M,SBD,MR-T2,75,Raw,2006,,UT,74.2,155,-160,162.5,162.5,95,100,-105,100,175,182.5,190,190,452.5,,
2,Jake Massey,M,SBD,MR-T2,75,Raw,2006,,ID,73,140,152.5,160,160,92.5,97.5,-102.5,97.5,165,180,190,190,447.5,,
3,Aidan Spencer,M,SBD,MR-T2,75,Raw,2006,,ID,70.7,140,145,147.5,147.5,92.5,-97.5,97.5,97.5,165,172.5,-182.5,172.5,417.5,,
1,Sam Ruegner,M,SBD,MR-T2,90,Raw,2006,More on the Bar,ID,87.6,175,187.5,205,205,120,127.5,132.5,132.5,220,237.5,250,250,587.5,,
2,Kaelan Davis,M,SBD,MR-T2,90,Raw,2007,,WA,88.2,165,172.5,-180,172.5,-110,115,-120,115,185,192.5,205,205,492.5,,
3,Kolby Ashby,M,SBD,MR-T2,90,Raw,2006,,UT,87,167.5,172.5,-182.5,172.5,105,110,-112.5,110,172.5,182.5,190,190,472.5,,
1,Easton Tarkalson,M,SBD,MR-T2,100,Raw,2006,,ID,99.5,130,140,-150,140,82.5,85,-92.5,85,152.5,162.5,172.5,172.5,397.5,,
1,Noah Verduzco,M,SBD,MR-T2,110,Raw,2006,,ID,109.2,202.5,-217.5,-217.5,202.5,112.5,122.5,127.5,127.5,217.5,235,245,245,575,,
1,Ethan Christensen,M,SBD,MR-T2,82.5,Raw,2007,,ID,79,162.5,172.5,182.5,182.5,100,105,112.5,112.5,190,207.5,-220,207.5,502.5,,
DQ,Preston Hunt,M,SBD,MR-T3,110,Raw,2005,,ID,106.3,-160,-175,-175,,-120,120,130,130,195,210,220,220,,,
1,Nicholas Kadooka,M,SBD,MR-T3,67.5,Raw,2005,,ID,65.8,157.5,162.5,165,165,100,102.5,105,105,162.5,172.5,175,175,445,,
1,Kaydin Dawson,M,SBD,MR-T3,82.5,Raw,2004,,ID,82.5,200,210,215,215,112.5,120,125,125,205,-215,-217.5,205,545,,
1,Pamela M Causey,F,BD,FR-M4b,60,Raw,1948,,WA,59.8,,,,,25,-30,-30,25,60,65,70,70,95,,
1,Joshua Parker,M,BD,MR-Jr,75,Raw,2001,More on the Bar,ID,74,,,,,115,122.5,130,130,200,217.5,230,230,360,,
1,Robert Scott #5,M,BD,MR-M4a,140,Raw,1952,,ID,131,,,,,97.5,105,110,110,110,120,135,135,245,,
1,Joshua Parker,M,BD,MR-O,75,Raw,2001,More on the Bar,ID,74,,,,,115,122.5,130,130,200,217.5,230,230,360,,
